Basic analysis workflow • gpatterns
…
 Global methylation

The fisrt thing we will to do, is to try and observe the most common feature of methylation data in mammals - low methylation in CpG dense regions and high methylation in regions with low CpG content. We will do that by plotting the average methylation as a function of CpG content (smoothed in 500bp):

trend <- gpatterns.global_meth_trend(tracks, names=names, xlab='CG content (500bp)')

the resulting object has 2 fields. ‘trend’ with the data, and ‘p’ with the plot:

trend$trend

## # A tibble: 640 × 7
##                               track            name            samp
##                               <chr>           <chr>           <chr>
## 1  gpatterns_nugget.Breast_2460_1_3 Breast_2460_1_3 Breast_2460_1_3
## 2  gpatterns_nugget.Breast_2460_1_3 Breast_2460_1_3 Breast_2460_1_3
## 3  gpatterns_nugget.Breast_2460_1_3 Breast_2460_1_3 Breast_2460_1_3
## 4  gpatterns_nugget.Breast_2460_1_3 Breast_2460_1_3 Breast_2460_1_3
## 5  gpatterns_nugget.Breast_2460_1_3 Breast_2460_1_3 Breast_2460_1_3
## 6  gpatterns_nugget.Breast_2460_1_3 Breast_2460_1_3 Breast_2460_1_3
## 7  gpatterns_nugget.Breast_2460_1_3 Breast_2460_1_3 Breast_2460_1_3
## 8  gpatterns_nugget.Breast_2460_1_3 Breast_2460_1_3 Breast_2460_1_3
## 9  gpatterns_nugget.Breast_2460_1_3 Breast_2460_1_3 Breast_2460_1_3
## 10 gpatterns_nugget.Breast_2460_1_3 Breast_2460_1_3 Breast_2460_1_3
##            breaks      meth breaks_numeric cg_num
##             <chr>     <dbl>          <dbl>  <dbl>
## 1      [0, 0.002] 0.7356322          0.001    330
## 2  (0.002, 0.004] 0.6792340          0.003   1490
## 3  (0.004, 0.006] 0.6930049          0.005   3491
## 4  (0.006, 0.008] 0.6791553          0.007   6188
## 5   (0.008, 0.01] 0.6431006          0.009   9658
## 6   (0.01, 0.012] 0.6587487          0.011  13855
## 7  (0.012, 0.014] 0.6547867          0.013  18358
## 8  (0.014, 0.016] 0.6359075          0.015  22968
## 9  (0.016, 0.018] 0.6462722          0.017  27780
## 10  (0.018, 0.02] 0.6270250          0.019  31500
## # ... with 630 more rows
…
